{
  "project_info": {
    "project_number": "289956640860",
    "firebase_url": "https://dartcounter-firebase.firebaseio.com",
    "project_id": "dartcounter-firebase",
    "storage_bucket": "dartcounter-firebase.appspot.com"
  },
  "client": [
    {
      "client_info": {
        "mobilesdk_app_id": "1:289956640860:android:e98be33b181fe70a",
        "android_client_info": {
          "package_name": "com.dartcounter.mobile"
        }
      },
      "oauth_client": [
        {
          "client_id": "289956640860-2imrhcbk3eigug2r12ab7kfge7r90ov8.apps.googleusercontent.com",
          "client_type": 3
        }
      ],
      "api_key": [
        {
          "current_key": "AIzaSyCC5rLdIFBk_kdKQ4nHrNuis2OFN9tShoU"
        }
      ],
      "services": {
        "analytics_service": {
          "status": 1
        },
        "appinvite_service": {
          "status": 1,
          "other_platform_oauth_client": []
        },
        "ads_service": {
          "status": 2
        }
      }
    }
  ],
  "configuration_version": "1"
}